{
	"data": [
		{
			"title":"NEW ATTRACTIONS",
			"author":"John Doe",
            "date":"10 Nov 2013",
			"post":"Donec sed odio dui. Duis mollis, est non commodo luctus, nisi erat porttitor ligula, eget lacinia odio sem nec elit. Sed posuere consectetur est at lobortis.",
            "likes":12,
            "comments":34
		},
        {
            "title":"LET’S MEET ON OLD MARKET SQUARE IT WILL BE FUN",
            "author":"John Doe",
            "date":"5 Nov 2013",
            "post":"Donec sed odio dui. Duis mollis, est non commodo luctus, nisi erat porttitor ligula, eget lacinia odio sem nec elit. Sed posuere consectetur est at lobortis.",
            "likes":56,
            "comments":55
        }
	]
}